<?xml version="1.0" encoding="UTF-8" standalone="no"?>
<!DOCTYPE svg PUBLIC "-//W3C//DTD SVG 1.1//EN" "http://www.w3.org/Graphics/SVG/1.1/DTD/svg11.dtd">
<svg width="100%" height="100%" viewBox="0 0 100 100" version="1.1" xmlns="http://www.w3.org/2000/svg" xmlns:xlink="http://www.w3.org/1999/xlink" xml:space="preserve" xmlns:serif="http://www.serif.com/" style="fill-rule:evenodd;clip-rule:evenodd;stroke-linejoin:round;stroke-miterlimit:2;">
    <circle id="Oval" cx="50" cy="50" r="50" style="fill:rgb(149,173,13);"/>
    <g transform="matrix(4,0,0,4,-16,-38)">
        <path d="M10,17L10,27L23,27L23,17L10,17ZM22,24.046L22,18L11,18L11,25L13.5,23L14.958,24.25L18.593,21L22,24.046Z" style="fill:white;"/>
        <path d="M14,21C14.552,21 15,20.552 15,20C15,19.448 14.552,19 14,19C13.448,19 13,19.448 13,20C13,20.552 13.448,21 14,21Z" style="fill:white;"/>
    </g>
</svg>
